%YAML 1.1
%TAG !u! tag:unity3d.com,2011:
--- !u!1 &2540363276463853882
GameObject:
  m_ObjectHideFlags: 0
  m_CorrespondingSourceObject: {fileID: 0}
  m_PrefabInstance: {fileID: 0}
  m_PrefabAsset: {fileID: 0}
  serializedVersion: 6
  m_Component:
  - component: {fileID: 3931546347713353463}
  m_Layer: 0
  m_Name: BigWall_White
  m_TagString: Untagged
  m_Icon: {fileID: 0}
  m_NavMeshLayer: 0
  m_StaticEditorFlags: 0
  m_IsActive: 1
--- !u!4 &3931546347713353463
Transform:
  m_ObjectHideFlags: 0
  m_CorrespondingSourceObject: {fileID: 0}
  m_PrefabInstance: {fileID: 0}
  m_PrefabAsset: {fileID: 0}
  m_GameObject: {fileID: 2540363276463853882}
  m_LocalRotation: {x: -0, y: -0, z: -0, w: 1}
  m_LocalPosition: {x: 0, y: 1.5, z: 15.1}
  m_LocalScale: {x: 10, y: 3, z: 0.2}
  m_Children:
  - {fileID: 7660107570482501049}
  - {fileID: 7660107571385762284}
  - {fileID: 7660107570251322042}
  m_Father: {fileID: 0}
  m_RootOrder: 0
  m_LocalEulerAnglesHint: {x: 0, y: 0, z: 0}
--- !u!1001 &1646802772575943499
PrefabInstance:
  m_ObjectHideFlags: 0
  serializedVersion: 2
  m_Modification:
    m_TransformParent: {fileID: 3931546347713353463}
    m_Modifications:
    - target: {fileID: 2488882441168934363, guid: 37de091058d324944aab328bda92f047,
        type: 3}
      propertyPath: m_Name
      value: Wall_White (3)
      objectReference: {fileID: 0}
    - target: {fileID: 8976999130066332145, guid: 37de091058d324944aab328bda92f047,
        type: 3}
      propertyPath: m_LocalPosition.x
      value: -1
      objectReference: {fileID: 0}
    - target: {fileID: 8976999130066332145, guid: 37de091058d324944aab328bda92f047,
        type: 3}
      propertyPath: m_LocalPosition.y
      value: 0
      objectReference: {fileID: 0}
    - target: {fileID: 8976999130066332145, guid: 37de091058d324944aab328bda92f047,
        type: 3}
      propertyPath: m_LocalPosition.z
      value: 0
      objectReference: {fileID: 0}
    - target: {fileID: 8976999130066332145, guid: 37de091058d324944aab328bda92f047,
        type: 3}
      propertyPath: m_LocalRotation.x
      value: -0
      objectReference: {fileID: 0}
    - target: {fileID: 8976999130066332145, guid: 37de091058d324944aab328bda92f047,
        type: 3}
      propertyPath: m_LocalRotation.y
      value: -0
      objectReference: {fileID: 0}
    - target: {fileID: 8976999130066332145, guid: 37de091058d324944aab328bda92f047,
        type: 3}
      propertyPath: m_LocalRotation.z
      value: -0
      objectReference: {fileID: 0}
    - target: {fileID: 8976999130066332145, guid: 37de091058d324944aab328bda92f047,
        type: 3}
      propertyPath: m_LocalRotation.w
      value: 1
      objectReference: {fileID: 0}
    - target: {fileID: 8976999130066332145, guid: 37de091058d324944aab328bda92f047,
        type: 3}
      propertyPath: m_RootOrder
      value: 2
      objectReference: {fileID: 0}
    - target: {fileID: 8976999130066332145, guid: 37de091058d324944aab328bda92f047,
        type: 3}
      propertyPath: m_LocalEulerAnglesHint.x
      value: 0
      objectReference: {fileID: 0}
    - target: {fileID: 8976999130066332145, guid: 37de091058d324944aab328bda92f047,
        type: 3}
      propertyPath: m_LocalEulerAnglesHint.y
      value: 0
      objectReference: {fileID: 0}
    - target: {fileID: 8976999130066332145, guid: 37de091058d324944aab328bda92f047,
        type: 3}
      propertyPath: m_LocalEulerAnglesHint.z
      value: 0
      objectReference: {fileID: 0}
    - target: {fileID: 8976999130066332145, guid: 37de091058d324944aab328bda92f047,
        type: 3}
      propertyPath: m_LocalScale.x
      value: 1
      objectReference: {fileID: 0}
    - target: {fileID: 8976999130066332145, guid: 37de091058d324944aab328bda92f047,
        type: 3}
      propertyPath: m_LocalScale.y
      value: 1
      objectReference: {fileID: 0}
    - target: {fileID: 8976999130066332145, guid: 37de091058d324944aab328bda92f047,
        type: 3}
      propertyPath: m_LocalScale.z
      value: 1
      objectReference: {fileID: 0}
    m_RemovedComponents: []
  m_SourcePrefab: {fileID: 100100000, guid: 37de091058d324944aab328bda92f047, type: 3}
--- !u!4 &7660107570251322042 stripped
Transform:
  m_CorrespondingSourceObject: {fileID: 8976999130066332145, guid: 37de091058d324944aab328bda92f047,
    type: 3}
  m_PrefabInstance: {fileID: 1646802772575943499}
  m_PrefabAsset: {fileID: 0}
--- !u!1001 &1646802773061925960
PrefabInstance:
  m_ObjectHideFlags: 0
  serializedVersion: 2
  m_Modification:
    m_TransformParent: {fileID: 3931546347713353463}
    m_Modifications:
    - target: {fileID: 2488882441168934363, guid: 37de091058d324944aab328bda92f047,
        type: 3}
      propertyPath: m_Name
      value: Wall_White (1)
      objectReference: {fileID: 0}
    - target: {fileID: 8976999130066332145, guid: 37de091058d324944aab328bda92f047,
        type: 3}
      propertyPath: m_LocalPosition.x
      value: 1
      objectReference: {fileID: 0}
    - target: {fileID: 8976999130066332145, guid: 37de091058d324944aab328bda92f047,
        type: 3}
      propertyPath: m_LocalPosition.y
      value: 0
      objectReference: {fileID: 0}
    - target: {fileID: 8976999130066332145, guid: 37de091058d324944aab328bda92f047,
        type: 3}
      propertyPath: m_LocalPosition.z
      value: 0
      objectReference: {fileID: 0}
    - target: {fileID: 8976999130066332145, guid: 37de091058d324944aab328bda92f047,
        type: 3}
      propertyPath: m_LocalRotation.x
      value: -0
      objectReference: {fileID: 0}
    - target: {fileID: 8976999130066332145, guid: 37de091058d324944aab328bda92f047,
        type: 3}
      propertyPath: m_LocalRotation.y
      value: -0
      objectReference: {fileID: 0}
    - target: {fileID: 8976999130066332145, guid: 37de091058d324944aab328bda92f047,
        type: 3}
      propertyPath: m_LocalRotation.z
      value: -0
      objectReference: {fileID: 0}
    - target: {fileID: 8976999130066332145, guid: 37de091058d324944aab328bda92f047,
        type: 3}
      propertyPath: m_LocalRotation.w
      value: 1
      objectReference: {fileID: 0}
    - target: {fileID: 8976999130066332145, guid: 37de091058d324944aab328bda92f047,
        type: 3}
      propertyPath: m_RootOrder
      value: 0
      objectReference: {fileID: 0}
    - target: {fileID: 8976999130066332145, guid: 37de091058d324944aab328bda92f047,
        type: 3}
      propertyPath: m_LocalEulerAnglesHint.x
      value: 0
      objectReference: {fileID: 0}
    - target: {fileID: 8976999130066332145, guid: 37de091058d324944aab328bda92f047,
        type: 3}
      propertyPath: m_LocalEulerAnglesHint.y
      value: 0
      objectReference: {fileID: 0}
    - target: {fileID: 8976999130066332145, guid: 37de091058d324944aab328bda92f047,
        type: 3}
      propertyPath: m_LocalEulerAnglesHint.z
      value: 0
      objectReference: {fileID: 0}
    - target: {fileID: 8976999130066332145, guid: 37de091058d324944aab328bda92f047,
        type: 3}
      propertyPath: m_LocalScale.x
      value: 1
      objectReference: {fileID: 0}
    - target: {fileID: 8976999130066332145, guid: 37de091058d324944aab328bda92f047,
        type: 3}
      propertyPath: m_LocalScale.y
      value: 1
      objectReference: {fileID: 0}
    - target: {fileID: 8976999130066332145, guid: 37de091058d324944aab328bda92f047,
        type: 3}
      propertyPath: m_LocalScale.z
      value: 1
      objectReference: {fileID: 0}
    m_RemovedComponents: []
  m_SourcePrefab: {fileID: 100100000, guid: 37de091058d324944aab328bda92f047, type: 3}
--- !u!4 &7660107570482501049 stripped
Transform:
  m_CorrespondingSourceObject: {fileID: 8976999130066332145, guid: 37de091058d324944aab328bda92f047,
    type: 3}
  m_PrefabInstance: {fileID: 1646802773061925960}
  m_PrefabAsset: {fileID: 0}
--- !u!1001 &1646802773693605917
PrefabInstance:
  m_ObjectHideFlags: 0
  serializedVersion: 2
  m_Modification:
    m_TransformParent: {fileID: 3931546347713353463}
    m_Modifications:
    - target: {fileID: 2488882441168934363, guid: 37de091058d324944aab328bda92f047,
        type: 3}
      propertyPath: m_Name
      value: Wall_White (2)
      objectReference: {fileID: 0}
    - target: {fileID: 8976999130066332145, guid: 37de091058d324944aab328bda92f047,
        type: 3}
      propertyPath: m_LocalPosition.x
      value: 0
      objectReference: {fileID: 0}
    - target: {fileID: 8976999130066332145, guid: 37de091058d324944aab328bda92f047,
        type: 3}
      propertyPath: m_LocalPosition.y
      value: 0
      objectReference: {fileID: 0}
    - target: {fileID: 8976999130066332145, guid: 37de091058d324944aab328bda92f047,
        type: 3}
      propertyPath: m_LocalPosition.z
      value: 0
      objectReference: {fileID: 0}
    - target: {fileID: 8976999130066332145, guid: 37de091058d324944aab328bda92f047,
        type: 3}
      propertyPath: m_LocalRotation.x
      value: -0
      objectReference: {fileID: 0}
    - target: {fileID: 8976999130066332145, guid: 37de091058d324944aab328bda92f047,
        type: 3}
      propertyPath: m_LocalRotation.y
      value: -0
      objectReference: {fileID: 0}
    - target: {fileID: 8976999130066332145, guid: 37de091058d324944aab328bda92f047,
        type: 3}
      propertyPath: m_LocalRotation.z
      value: -0
      objectReference: {fileID: 0}
    - target: {fileID: 8976999130066332145, guid: 37de091058d324944aab328bda92f047,
        type: 3}
      propertyPath: m_LocalRotation.w
      value: 1
      objectReference: {fileID: 0}
    - target: {fileID: 8976999130066332145, guid: 37de091058d324944aab328bda92f047,
        type: 3}
      propertyPath: m_RootOrder
      value: 1
      objectReference: {fileID: 0}
    - target: {fileID: 8976999130066332145, guid: 37de091058d324944aab328bda92f047,
        type: 3}
      propertyPath: m_LocalEulerAnglesHint.x
      value: 0
      objectReference: {fileID: 0}
    - target: {fileID: 8976999130066332145, guid: 37de091058d324944aab328bda92f047,
        type: 3}
      propertyPath: m_LocalEulerAnglesHint.y
      value: 0
      objectReference: {fileID: 0}
    - target: {fileID: 8976999130066332145, guid: 37de091058d324944aab328bda92f047,
        type: 3}
      propertyPath: m_LocalEulerAnglesHint.z
      value: 0
      objectReference: {fileID: 0}
    - target: {fileID: 8976999130066332145, guid: 37de091058d324944aab328bda92f047,
        type: 3}
      propertyPath: m_LocalScale.x
      value: 1
      objectReference: {fileID: 0}
    - target: {fileID: 8976999130066332145, guid: 37de091058d324944aab328bda92f047,
        type: 3}
      propertyPath: m_LocalScale.y
      value: 1
      objectReference: {fileID: 0}
    - target: {fileID: 8976999130066332145, guid: 37de091058d324944aab328bda92f047,
        type: 3}
      propertyPath: m_LocalScale.z
      value: 1
      objectReference: {fileID: 0}
    m_RemovedComponents: []
  m_SourcePrefab: {fileID: 100100000, guid: 37de091058d324944aab328bda92f047, type: 3}
--- !u!4 &7660107571385762284 stripped
Transform:
  m_CorrespondingSourceObject: {fileID: 8976999130066332145, guid: 37de091058d324944aab328bda92f047,
    type: 3}
  m_PrefabInstance: {fileID: 1646802773693605917}
  m_PrefabAsset: {fileID: 0}
