%YAML 1.1
%TAG !u! tag:unity3d.com,2011:
--- !u!1 &35495642612994488
GameObject:
  m_ObjectHideFlags: 0
  m_CorrespondingSourceObject: {fileID: 0}
  m_PrefabInstance: {fileID: 0}
  m_PrefabAsset: {fileID: 0}
  serializedVersion: 6
  m_Component:
  - component: {fileID: 3846269471828877583}
  m_Layer: 0
  m_Name: BigWall_Blue
  m_TagString: Untagged
  m_Icon: {fileID: 0}
  m_NavMeshLayer: 0
  m_StaticEditorFlags: 0
  m_IsActive: 1
--- !u!4 &3846269471828877583
Transform:
  m_ObjectHideFlags: 0
  m_CorrespondingSourceObject: {fileID: 0}
  m_PrefabInstance: {fileID: 0}
  m_PrefabAsset: {fileID: 0}
  m_GameObject: {fileID: 35495642612994488}
  m_LocalRotation: {x: -0, y: -0, z: -0, w: 1}
  m_LocalPosition: {x: 0, y: 1.5, z: -15.1}
  m_LocalScale: {x: 10, y: 3, z: 0.2}
  m_Children:
  - {fileID: 6651446911776197303}
  - {fileID: 6651446911303262721}
  - {fileID: 6651446912483270496}
  m_Father: {fileID: 0}
  m_RootOrder: 0
  m_LocalEulerAnglesHint: {x: 0, y: 0, z: 0}
--- !u!1001 &6859094402082397631
PrefabInstance:
  m_ObjectHideFlags: 0
  serializedVersion: 2
  m_Modification:
    m_TransformParent: {fileID: 3846269471828877583}
    m_Modifications:
    - target: {fileID: 251860443674957576, guid: 9010f085112a7bd44b7ff969279a2164,
        type: 3}
      propertyPath: m_LocalPosition.x
      value: -1
      objectReference: {fileID: 0}
    - target: {fileID: 251860443674957576, guid: 9010f085112a7bd44b7ff969279a2164,
        type: 3}
      propertyPath: m_LocalPosition.y
      value: 0
      objectReference: {fileID: 0}
    - target: {fileID: 251860443674957576, guid: 9010f085112a7bd44b7ff969279a2164,
        type: 3}
      propertyPath: m_LocalPosition.z
      value: 0
      objectReference: {fileID: 0}
    - target: {fileID: 251860443674957576, guid: 9010f085112a7bd44b7ff969279a2164,
        type: 3}
      propertyPath: m_LocalRotation.x
      value: -0
      objectReference: {fileID: 0}
    - target: {fileID: 251860443674957576, guid: 9010f085112a7bd44b7ff969279a2164,
        type: 3}
      propertyPath: m_LocalRotation.y
      value: -0
      objectReference: {fileID: 0}
    - target: {fileID: 251860443674957576, guid: 9010f085112a7bd44b7ff969279a2164,
        type: 3}
      propertyPath: m_LocalRotation.z
      value: -0
      objectReference: {fileID: 0}
    - target: {fileID: 251860443674957576, guid: 9010f085112a7bd44b7ff969279a2164,
        type: 3}
      propertyPath: m_LocalRotation.w
      value: 1
      objectReference: {fileID: 0}
    - target: {fileID: 251860443674957576, guid: 9010f085112a7bd44b7ff969279a2164,
        type: 3}
      propertyPath: m_RootOrder
      value: 0
      objectReference: {fileID: 0}
    - target: {fileID: 251860443674957576, guid: 9010f085112a7bd44b7ff969279a2164,
        type: 3}
      propertyPath: m_LocalEulerAnglesHint.x
      value: 0
      objectReference: {fileID: 0}
    - target: {fileID: 251860443674957576, guid: 9010f085112a7bd44b7ff969279a2164,
        type: 3}
      propertyPath: m_LocalEulerAnglesHint.y
      value: 0
      objectReference: {fileID: 0}
    - target: {fileID: 251860443674957576, guid: 9010f085112a7bd44b7ff969279a2164,
        type: 3}
      propertyPath: m_LocalEulerAnglesHint.z
      value: 0
      objectReference: {fileID: 0}
    - target: {fileID: 251860443674957576, guid: 9010f085112a7bd44b7ff969279a2164,
        type: 3}
      propertyPath: m_LocalScale.x
      value: 1
      objectReference: {fileID: 0}
    - target: {fileID: 251860443674957576, guid: 9010f085112a7bd44b7ff969279a2164,
        type: 3}
      propertyPath: m_LocalScale.y
      value: 1
      objectReference: {fileID: 0}
    - target: {fileID: 251860443674957576, guid: 9010f085112a7bd44b7ff969279a2164,
        type: 3}
      propertyPath: m_LocalScale.z
      value: 1
      objectReference: {fileID: 0}
    - target: {fileID: 6728437201874135842, guid: 9010f085112a7bd44b7ff969279a2164,
        type: 3}
      propertyPath: m_Name
      value: Wall_Blue (1)
      objectReference: {fileID: 0}
    m_RemovedComponents: []
  m_SourcePrefab: {fileID: 100100000, guid: 9010f085112a7bd44b7ff969279a2164, type: 3}
--- !u!4 &6651446911776197303 stripped
Transform:
  m_CorrespondingSourceObject: {fileID: 251860443674957576, guid: 9010f085112a7bd44b7ff969279a2164,
    type: 3}
  m_PrefabInstance: {fileID: 6859094402082397631}
  m_PrefabAsset: {fileID: 0}
--- !u!1001 &6859094402546955529
PrefabInstance:
  m_ObjectHideFlags: 0
  serializedVersion: 2
  m_Modification:
    m_TransformParent: {fileID: 3846269471828877583}
    m_Modifications:
    - target: {fileID: 251860443674957576, guid: 9010f085112a7bd44b7ff969279a2164,
        type: 3}
      propertyPath: m_LocalPosition.x
      value: 0
      objectReference: {fileID: 0}
    - target: {fileID: 251860443674957576, guid: 9010f085112a7bd44b7ff969279a2164,
        type: 3}
      propertyPath: m_LocalPosition.y
      value: 0
      objectReference: {fileID: 0}
    - target: {fileID: 251860443674957576, guid: 9010f085112a7bd44b7ff969279a2164,
        type: 3}
      propertyPath: m_LocalPosition.z
      value: 0
      objectReference: {fileID: 0}
    - target: {fileID: 251860443674957576, guid: 9010f085112a7bd44b7ff969279a2164,
        type: 3}
      propertyPath: m_LocalRotation.x
      value: -0
      objectReference: {fileID: 0}
    - target: {fileID: 251860443674957576, guid: 9010f085112a7bd44b7ff969279a2164,
        type: 3}
      propertyPath: m_LocalRotation.y
      value: -0
      objectReference: {fileID: 0}
    - target: {fileID: 251860443674957576, guid: 9010f085112a7bd44b7ff969279a2164,
        type: 3}
      propertyPath: m_LocalRotation.z
      value: -0
      objectReference: {fileID: 0}
    - target: {fileID: 251860443674957576, guid: 9010f085112a7bd44b7ff969279a2164,
        type: 3}
      propertyPath: m_LocalRotation.w
      value: 1
      objectReference: {fileID: 0}
    - target: {fileID: 251860443674957576, guid: 9010f085112a7bd44b7ff969279a2164,
        type: 3}
      propertyPath: m_RootOrder
      value: 1
      objectReference: {fileID: 0}
    - target: {fileID: 251860443674957576, guid: 9010f085112a7bd44b7ff969279a2164,
        type: 3}
      propertyPath: m_LocalEulerAnglesHint.x
      value: 0
      objectReference: {fileID: 0}
    - target: {fileID: 251860443674957576, guid: 9010f085112a7bd44b7ff969279a2164,
        type: 3}
      propertyPath: m_LocalEulerAnglesHint.y
      value: 0
      objectReference: {fileID: 0}
    - target: {fileID: 251860443674957576, guid: 9010f085112a7bd44b7ff969279a2164,
        type: 3}
      propertyPath: m_LocalEulerAnglesHint.z
      value: 0
      objectReference: {fileID: 0}
    - target: {fileID: 251860443674957576, guid: 9010f085112a7bd44b7ff969279a2164,
        type: 3}
      propertyPath: m_LocalScale.x
      value: 1
      objectReference: {fileID: 0}
    - target: {fileID: 251860443674957576, guid: 9010f085112a7bd44b7ff969279a2164,
        type: 3}
      propertyPath: m_LocalScale.y
      value: 1
      objectReference: {fileID: 0}
    - target: {fileID: 251860443674957576, guid: 9010f085112a7bd44b7ff969279a2164,
        type: 3}
      propertyPath: m_LocalScale.z
      value: 1
      objectReference: {fileID: 0}
    - target: {fileID: 6728437201874135842, guid: 9010f085112a7bd44b7ff969279a2164,
        type: 3}
      propertyPath: m_Name
      value: Wall_Blue (2)
      objectReference: {fileID: 0}
    m_RemovedComponents: []
  m_SourcePrefab: {fileID: 100100000, guid: 9010f085112a7bd44b7ff969279a2164, type: 3}
--- !u!4 &6651446911303262721 stripped
Transform:
  m_CorrespondingSourceObject: {fileID: 251860443674957576, guid: 9010f085112a7bd44b7ff969279a2164,
    type: 3}
  m_PrefabInstance: {fileID: 6859094402546955529}
  m_PrefabAsset: {fileID: 0}
--- !u!1001 &6859094403791243368
PrefabInstance:
  m_ObjectHideFlags: 0
  serializedVersion: 2
  m_Modification:
    m_TransformParent: {fileID: 3846269471828877583}
    m_Modifications:
    - target: {fileID: 251860443674957576, guid: 9010f085112a7bd44b7ff969279a2164,
        type: 3}
      propertyPath: m_LocalPosition.x
      value: 1
      objectReference: {fileID: 0}
    - target: {fileID: 251860443674957576, guid: 9010f085112a7bd44b7ff969279a2164,
        type: 3}
      propertyPath: m_LocalPosition.y
      value: 0
      objectReference: {fileID: 0}
    - target: {fileID: 251860443674957576, guid: 9010f085112a7bd44b7ff969279a2164,
        type: 3}
      propertyPath: m_LocalPosition.z
      value: 0
      objectReference: {fileID: 0}
    - target: {fileID: 251860443674957576, guid: 9010f085112a7bd44b7ff969279a2164,
        type: 3}
      propertyPath: m_LocalRotation.x
      value: -0
      objectReference: {fileID: 0}
    - target: {fileID: 251860443674957576, guid: 9010f085112a7bd44b7ff969279a2164,
        type: 3}
      propertyPath: m_LocalRotation.y
      value: -0
      objectReference: {fileID: 0}
    - target: {fileID: 251860443674957576, guid: 9010f085112a7bd44b7ff969279a2164,
        type: 3}
      propertyPath: m_LocalRotation.z
      value: -0
      objectReference: {fileID: 0}
    - target: {fileID: 251860443674957576, guid: 9010f085112a7bd44b7ff969279a2164,
        type: 3}
      propertyPath: m_LocalRotation.w
      value: 1
      objectReference: {fileID: 0}
    - target: {fileID: 251860443674957576, guid: 9010f085112a7bd44b7ff969279a2164,
        type: 3}
      propertyPath: m_RootOrder
      value: 2
      objectReference: {fileID: 0}
    - target: {fileID: 251860443674957576, guid: 9010f085112a7bd44b7ff969279a2164,
        type: 3}
      propertyPath: m_LocalEulerAnglesHint.x
      value: 0
      objectReference: {fileID: 0}
    - target: {fileID: 251860443674957576, guid: 9010f085112a7bd44b7ff969279a2164,
        type: 3}
      propertyPath: m_LocalEulerAnglesHint.y
      value: 0
      objectReference: {fileID: 0}
    - target: {fileID: 251860443674957576, guid: 9010f085112a7bd44b7ff969279a2164,
        type: 3}
      propertyPath: m_LocalEulerAnglesHint.z
      value: 0
      objectReference: {fileID: 0}
    - target: {fileID: 251860443674957576, guid: 9010f085112a7bd44b7ff969279a2164,
        type: 3}
      propertyPath: m_LocalScale.x
      value: 1
      objectReference: {fileID: 0}
    - target: {fileID: 251860443674957576, guid: 9010f085112a7bd44b7ff969279a2164,
        type: 3}
      propertyPath: m_LocalScale.y
      value: 1
      objectReference: {fileID: 0}
    - target: {fileID: 251860443674957576, guid: 9010f085112a7bd44b7ff969279a2164,
        type: 3}
      propertyPath: m_LocalScale.z
      value: 1
      objectReference: {fileID: 0}
    - target: {fileID: 6728437201874135842, guid: 9010f085112a7bd44b7ff969279a2164,
        type: 3}
      propertyPath: m_Name
      value: Wall_Blue (3)
      objectReference: {fileID: 0}
    m_RemovedComponents: []
  m_SourcePrefab: {fileID: 100100000, guid: 9010f085112a7bd44b7ff969279a2164, type: 3}
--- !u!4 &6651446912483270496 stripped
Transform:
  m_CorrespondingSourceObject: {fileID: 251860443674957576, guid: 9010f085112a7bd44b7ff969279a2164,
    type: 3}
  m_PrefabInstance: {fileID: 6859094403791243368}
  m_PrefabAsset: {fileID: 0}
