%YAML 1.1
%TAG !u! tag:unity3d.com,2011:
--- !u!1001 &4344167174349054072
PrefabInstance:
  m_ObjectHideFlags: 0
  serializedVersion: 2
  m_Modification:
    m_TransformParent: {fileID: 0}
    m_Modifications:
    - target: {fileID: 4012761746324120422, guid: 90fdc612fd43f7f49a782f207b638ee4,
        type: 3}
      propertyPath: m_LocalPosition.x
      value: 0
      objectReference: {fileID: 0}
    - target: {fileID: 4012761746324120422, guid: 90fdc612fd43f7f49a782f207b638ee4,
        type: 3}
      propertyPath: m_LocalPosition.y
      value: 0
      objectReference: {fileID: 0}
    - target: {fileID: 4012761746324120422, guid: 90fdc612fd43f7f49a782f207b638ee4,
        type: 3}
      propertyPath: m_LocalPosition.z
      value: 0
      objectReference: {fileID: 0}
    - target: {fileID: 4012761746324120422, guid: 90fdc612fd43f7f49a782f207b638ee4,
        type: 3}
      propertyPath: m_LocalRotation.x
      value: 0
      objectReference: {fileID: 0}
    - target: {fileID: 4012761746324120422, guid: 90fdc612fd43f7f49a782f207b638ee4,
        type: 3}
      propertyPath: m_LocalRotation.y
      value: 0
      objectReference: {fileID: 0}
    - target: {fileID: 4012761746324120422, guid: 90fdc612fd43f7f49a782f207b638ee4,
        type: 3}
      propertyPath: m_LocalRotation.z
      value: 0
      objectReference: {fileID: 0}
    - target: {fileID: 4012761746324120422, guid: 90fdc612fd43f7f49a782f207b638ee4,
        type: 3}
      propertyPath: m_LocalRotation.w
      value: 1
      objectReference: {fileID: 0}
    - target: {fileID: 4012761746324120422, guid: 90fdc612fd43f7f49a782f207b638ee4,
        type: 3}
      propertyPath: m_RootOrder
      value: 0
      objectReference: {fileID: 0}
    - target: {fileID: 4012761746324120422, guid: 90fdc612fd43f7f49a782f207b638ee4,
        type: 3}
      propertyPath: m_LocalEulerAnglesHint.x
      value: 0
      objectReference: {fileID: 0}
    - target: {fileID: 4012761746324120422, guid: 90fdc612fd43f7f49a782f207b638ee4,
        type: 3}
      propertyPath: m_LocalEulerAnglesHint.y
      value: 0
      objectReference: {fileID: 0}
    - target: {fileID: 4012761746324120422, guid: 90fdc612fd43f7f49a782f207b638ee4,
        type: 3}
      propertyPath: m_LocalEulerAnglesHint.z
      value: 0
      objectReference: {fileID: 0}
    - target: {fileID: 4332527087304382815, guid: 90fdc612fd43f7f49a782f207b638ee4,
        type: 3}
      propertyPath: m_Materials.Array.data[0]
      value: 
      objectReference: {fileID: 2100000, guid: d7743069c2d83ae4a87474d55f71cc63, type: 2}
    - target: {fileID: 8261118005716386025, guid: 90fdc612fd43f7f49a782f207b638ee4,
        type: 3}
      propertyPath: m_Name
      value: Floor2
      objectReference: {fileID: 0}
    m_RemovedComponents: []
  m_SourcePrefab: {fileID: 100100000, guid: 90fdc612fd43f7f49a782f207b638ee4, type: 3}
