%YAML 1.1
%TAG !u! tag:unity3d.com,2011:
--- !u!1001 &80749282703303933
PrefabInstance:
  m_ObjectHideFlags: 0
  serializedVersion: 2
  m_Modification:
    m_TransformParent: {fileID: 0}
    m_Modifications:
    - target: {fileID: 1575403511861757625, guid: c4f79b0597d1d5c4987a05125e2c1d13,
        type: 3}
      propertyPath: m_Materials.Array.data[0]
      value: 
      objectReference: {fileID: 2100000, guid: 0c2ee8b31ebea8346a96af3f4be68f82, type: 2}
    - target: {fileID: 2473587858220915360, guid: c4f79b0597d1d5c4987a05125e2c1d13,
        type: 3}
      propertyPath: m_LocalPosition.x
      value: 0
      objectReference: {fileID: 0}
    - target: {fileID: 2473587858220915360, guid: c4f79b0597d1d5c4987a05125e2c1d13,
        type: 3}
      propertyPath: m_LocalPosition.y
      value: 0
      objectReference: {fileID: 0}
    - target: {fileID: 2473587858220915360, guid: c4f79b0597d1d5c4987a05125e2c1d13,
        type: 3}
      propertyPath: m_LocalPosition.z
      value: 0
      objectReference: {fileID: 0}
    - target: {fileID: 2473587858220915360, guid: c4f79b0597d1d5c4987a05125e2c1d13,
        type: 3}
      propertyPath: m_LocalRotation.x
      value: 0
      objectReference: {fileID: 0}
    - target: {fileID: 2473587858220915360, guid: c4f79b0597d1d5c4987a05125e2c1d13,
        type: 3}
      propertyPath: m_LocalRotation.y
      value: 0
      objectReference: {fileID: 0}
    - target: {fileID: 2473587858220915360, guid: c4f79b0597d1d5c4987a05125e2c1d13,
        type: 3}
      propertyPath: m_LocalRotation.z
      value: 0
      objectReference: {fileID: 0}
    - target: {fileID: 2473587858220915360, guid: c4f79b0597d1d5c4987a05125e2c1d13,
        type: 3}
      propertyPath: m_LocalRotation.w
      value: 1
      objectReference: {fileID: 0}
    - target: {fileID: 2473587858220915360, guid: c4f79b0597d1d5c4987a05125e2c1d13,
        type: 3}
      propertyPath: m_RootOrder
      value: 0
      objectReference: {fileID: 0}
    - target: {fileID: 2473587858220915360, guid: c4f79b0597d1d5c4987a05125e2c1d13,
        type: 3}
      propertyPath: m_LocalEulerAnglesHint.x
      value: 0
      objectReference: {fileID: 0}
    - target: {fileID: 2473587858220915360, guid: c4f79b0597d1d5c4987a05125e2c1d13,
        type: 3}
      propertyPath: m_LocalEulerAnglesHint.y
      value: 0
      objectReference: {fileID: 0}
    - target: {fileID: 2473587858220915360, guid: c4f79b0597d1d5c4987a05125e2c1d13,
        type: 3}
      propertyPath: m_LocalEulerAnglesHint.z
      value: 0
      objectReference: {fileID: 0}
    - target: {fileID: 8956832054628509322, guid: c4f79b0597d1d5c4987a05125e2c1d13,
        type: 3}
      propertyPath: m_Name
      value: SmallWall_Red
      objectReference: {fileID: 0}
    m_RemovedComponents: []
  m_SourcePrefab: {fileID: 100100000, guid: c4f79b0597d1d5c4987a05125e2c1d13, type: 3}
