%YAML 1.1
%TAG !u! tag:unity3d.com,2011:
--- !u!1045 &1
EditorBuildSettings:
  m_ObjectHideFlags: 0
  serializedVersion: 2
  m_Scenes:
  - enabled: 1
    path: Assets/Scenes/Menu.unity
    guid: 5238674efee15c4408bf566774852797
  - enabled: 1
    path: Assets/Scenes/PreGame.unity
    guid: 9e549d54770b08749a6404c8b2463b2d
  - enabled: 1
    path: Assets/Scenes/Level1.unity
    guid: 7e9566a6449c45143b7e65ab67380931
  - enabled: 1
    path: Assets/Scenes/Level2.unity
    guid: ddbf52eace3ea36469b649942b3b0257
  - enabled: 1
    path: Assets/Scenes/Level3.unity
    guid: 7f89351aecdb22a46aee6ec0c63f5a66
  - enabled: 1
    path: Assets/Scenes/Level4.unity
    guid: cbecca981ce91e14d84df96051615d26
  - enabled: 1
    path: Assets/Scenes/LevelFinal.unity
    guid: 51ba60cabb368b14ab8a2b77b3965229
  m_configObjects: {}
